x,BOP,J5M,J6S,PPH,PRL,PTR,SPH,SPL
0.0,4.92181920996e-45,4.29326165282e-32,1.01771409168e-47,6.76000703486e-111,3.56467591189e-33,1.67314052608e-29,2.73408029122e-118,3.95200742885e-48
0.010101010101,1.54109693405e-39,3.67572419887e-27,3.29433570168e-41,2.54891691918e-91,8.4263458946e-27,3.38485487588e-23,7.88007010354e-101,2.31255980108e-41
0.020202020202,1.91054964587e-34,1.00495207525e-22,3.07317759964e-35,9.24324880432e-74,3.01188487214e-21,7.88388627076e-18,7.63642222957e-85,3.60622810937e-35
0.030303030303,9.40609588188e-30,8.8343130175e-19,8.26998812163e-30,3.22390915633e-58,1.62786094957e-16,2.13394811544e-13,2.48880986725e-70,1.49916649329e-29
0.040404040404,1.84662541575e-25,2.52669309228e-15,6.42854826824e-25,1.08173698748e-44,1.33038119174e-12,6.80920217528e-10,2.72919367164e-57,1.66254425871e-24
0.0505050505051,1.45376800146e-21,2.39781167663e-12,1.44635588701e-20,3.49407615988e-33,1.64404893875e-09,2.6301501442e-07,1.00789190367e-45,4.92479526328e-20
0.0606060606061,4.62313516179e-18,7.78366085652e-10,9.44715348119e-17,1.0887724021e-23,3.07208508089e-07,1.30952095663e-05,1.25583029758e-35,3.90675195923e-16
0.0707070707071,5.99348525401e-15,9.01399466844e-08,1.80005835288e-13,3.29477335869e-16,8.68023725062e-06,0.000101005948208,5.29951759063e-27,8.3432332372e-13
0.0808080808081,3.2020898389e-12,3.91848849904e-06,1.00884556898e-10,9.87965451872e-11,3.70862417841e-05,0.000262306306742,7.63537225903e-20,4.84961620523e-10
0.0909090909091,7.13689817323e-10,6.79795234505e-05,1.68907538009e-08,3.10114874656e-07,2.40680777448e-05,0.000869422923724,3.8229285867e-14,7.85616283196e-08
0.10101010101,6.72846228465e-08,0.00051772430455,8.73218381457e-07,1.14564133191e-05,1.01240416272e-05,0.00191409097328,6.92876447404e-10,3.73767515402e-06
0.111111111111,2.73271646553e-06,0.00206111720633,1.51357270377e-05,1.37176755997e-05,0.000118743016901,0.00343106133386,5.05196349981e-07,5.86689305302e-05
0.121212121212,4.94916643682e-05,0.00550772067937,0.000108347235982,4.97036689563e-05,0.000662077026711,0.00588728516767,2.08726508366e-05,0.000386470067164
0.131313131313,0.000437934182016,0.0120704289894,0.000457216139476,0.000182254050418,0.00202498361278,0.00966391278418,0.000127802465688,0.00156316592267
0.141414141414,0.0024119179133,0.0230612632996,0.00150532189237,0.000470911142627,0.00381911817037,0.0157408443182,0.0004911803091,0.00527683606477
0.151515151515,0.0115129990112,0.0389889394462,0.0043243729566,0.000965053129032,0.00491491998458,0.0230588329448,0.00187664001162,0.0156207444293
0.161616161616,0.0473732338611,0.0615783629891,0.0104930022879,0.00180331304746,0.0058474716066,0.03211039025,0.00645380723045,0.0419012378454
0.171717171717,0.139993609952,0.0935595209401,0.0217676890071,0.00411902746517,0.00891095222333,0.0424375399359,0.0174385875739,0.101721971233
0.181818181818,0.287083093313,0.138394687717,0.0400443826913,0.00870887074769,0.015546819173,0.0550408035716,0.0361131791013,0.207784509765
0.191919191919,0.452016529545,0.195831359044,0.0667027575952,0.0161761480095,0.0242306129,0.0681378971477,0.0646491199538,0.355256663285
0.20202020202,0.679452023331,0.255336725631,0.101417354188,0.0235153960719,0.0313620974074,0.0775164649615,0.107903104447,0.531791100795
0.212121212121,1.10550458022,0.311208440745,0.14705052983,0.0374592949236,0.0437330001909,0.0912907607398,0.176701138827,0.776676803941
0.222222222222,1.75192421797,0.371639903972,0.214715745647,0.0824327753921,0.0734935791147,0.11793915659,0.271197994051,1.14261762979
0.232323232323,2.36071568339,0.439304646313,0.299572833476,0.137948509429,0.118940367953,0.157991526167,0.375761591912,1.53810869169
0.242424242424,2.70093426352,0.504751720218,0.377818815978,0.186657533365,0.169607688491,0.197366542772,0.476006998125,1.81774777949
0.252525252525,2.86088147758,0.556356341649,0.433796243901,0.232486674819,0.202319783951,0.226359183903,0.611426246803,1.98717565116
0.262626262626,2.95046176562,0.604057425034,0.459896258254,0.242117916434,0.207322569866,0.241749437497,0.800800978768,2.12631135236
0.272727272727,3.03356934813,0.680749238933,0.468884533733,0.250902626918,0.212490591745,0.254204964193,1.02408297443,2.26064277315
0.282828282828,3.08137335145,0.808594580339,0.487999531542,0.278859409406,0.228024219996,0.275775230252,1.24079822503,2.37308151397
0.292929292929,3.03895729687,0.987110510929,0.535707973636,0.321889430572,0.251577865053,0.314129711821,1.46166228702,2.44696495215
0.30303030303,2.91582036756,1.20657166817,0.609171281819,0.355919987301,0.275710567603,0.359782056085,1.73593291136,2.51069861469
0.313131313131,2.71175413778,1.44347543393,0.691200550569,0.346577293233,0.292971506946,0.39716953708,2.09361414466,2.56109561056
0.323232323232,2.46949229953,1.65851457706,0.78255719537,0.330188487534,0.308576026023,0.43204119598,2.41727792368,2.5383631337
0.333333333333,2.26029275991,1.82212337596,0.892237463476,0.347832812138,0.341069129508,0.48097095615,2.53738593477,2.41307053888
0.343434343434,2.09028218522,1.93685277359,1.00444174309,0.423872414483,0.398084012642,0.549284812807,2.13577948549,2.21140988075
0.353535353535,1.87974286229,2.00308917426,1.09184948994,0.484890079937,0.460697831053,0.615074469646,1.49675618049,1.97472489526
0.363636363636,1.58078097685,2.02812560555,1.15131716683,0.498129288861,0.511405828122,0.668031896759,1.11939899184,1.71408372258
0.373737373737,1.27576131324,2.02838379569,1.19643593465,0.509609777715,0.555080943374,0.723746147225,1.08236737863,1.49274186813
0.383838383838,1.05738581815,1.98795294093,1.2333499475,0.511164060497,0.583668544565,0.782376339625,1.29965852767,1.40793176969
0.393939393939,0.941027376414,1.8995958717,1.26291919488,0.530854700974,0.620492375996,0.838787905831,1.50461254719,1.42223415989
0.40404040404,0.900620419371,1.7822734475,1.26554494256,0.564076346014,0.666267693717,0.888817999694,1.53698860316,1.47729670843
0.414141414141,0.905733600578,1.65215134815,1.24598686065,0.607985697296,0.715954216774,0.920722471352,1.48762378459,1.57542543684
0.424242424242,0.942354209805,1.5185157163,1.22140154384,0.641403265165,0.756883645136,0.93779825812,1.44465980773,1.72873767641
0.434343434343,1.00685611463,1.39852353877,1.1872963566,0.670634237497,0.776968225827,0.946967874059,1.43700260659,1.91838508997
0.444444444444,1.09701368168,1.30500675647,1.13991672189,0.701739999744,0.799303641162,0.943697559585,1.43649539007,2.07682544274
0.454545454545,1.19840723367,1.23636019719,1.08133888356,0.740840648787,0.822227507193,0.944805810996,1.33508470234,2.07829856385
0.464646464646,1.28111719787,1.19794454827,1.01625739661,0.78347724027,0.837616904722,0.954913183992,1.11514934685,1.86764164747
0.474747474747,1.33686717783,1.20141136606,0.956987137592,0.830580934249,0.853927809341,0.967954734176,0.869211208792,1.5350644222
0.484848484848,1.38980787291,1.24977008743,0.914642806146,0.869285297941,0.87528590714,0.983718668327,0.69064405325,1.20311086557
0.494949494949,1.45419669509,1.34685910091,0.904104586673,0.920467328294,0.909920637426,1.0179491637,0.604035224983,0.949584735016
0.505050505051,1.53447658546,1.49639488487,0.928771675736,0.976403345899,0.949764315994,1.07523885576,0.587902472642,0.794042586981
0.515151515152,1.64446618308,1.6985051084,0.98165507827,1.0452226181,1.00255389208,1.14807043556,0.620077134341,0.727776132485
0.525252525253,1.76868827184,1.94928265857,1.06068230481,1.15476727304,1.0798439112,1.24992922215,0.68609124211,0.735742540954
0.535353535354,1.82700530513,2.22742467183,1.16010211442,1.26820772814,1.16640880661,1.37998748576,0.807879369455,0.800034971087
0.545454545455,1.7220901414,2.48576335724,1.26922794049,1.32118066991,1.23445516943,1.52048759452,1.03838493996,0.919067792844
0.555555555556,1.42919930304,2.67511478156,1.38242338156,1.29149134542,1.27282732323,1.64345169129,1.46433906049,1.12335640231
0.565656565657,1.08013379378,2.76028531327,1.50312310935,1.18409204123,1.28280968281,1.73258830064,2.23907163332,1.45592950813
0.575757575758,0.870154182176,2.73973134247,1.64438334637,1.08479556091,1.29461088621,1.79746363862,3.4999996109,1.95595915463
0.585858585859,0.864483040305,2.64443513861,1.80334536111,1.03644747527,1.33026352541,1.8411073301,5.22644576114,2.65552150516
0.59595959596,1.00929995422,2.50268465637,1.96023071243,1.03543817465,1.38222539832,1.87737420382,7.031765223,3.48745738828
0.606060606061,1.23610443898,2.34485281521,2.11580160241,1.11108845912,1.46621866505,1.92587479129,8.05556235439,4.17277805557
0.616161616162,1.494212402,2.20986702484,2.26887475514,1.25120814981,1.58844282285,2.00034406678,7.8046447591,4.42069969727
0.626262626263,1.73036329976,2.106885281,2.40667989908,1.44477866187,1.75213120444,2.10168987049,6.53985526991,4.1948501708
0.636363636364,1.8887244639,2.02566465448,2.53267093802,1.697163329,1.95254393455,2.22786551381,4.87021537899,3.62949703983
0.646464646465,1.9483748408,1.96834056404,2.64993820516,1.99468571814,2.18042861661,2.40343221528,3.32157550249,2.91200394115
0.656565656566,1.92302465911,1.9309035175,2.77104107983,2.34858802992,2.44784884372,2.60691958567,2.16647177251,2.21473813042
0.666666666667,1.84037870259,1.90319372633,2.90291485832,2.73573996863,2.75868618077,2.83720927002,1.42322658393,1.65508052657
0.676767676768,1.73450554893,1.89073980692,3.04883873725,3.14581945447,3.11551156977,3.09145722851,0.978592903054,1.25289246279
0.686868686869,1.63492864126,1.90616233193,3.22795089881,3.55809984355,3.49983975719,3.35894792684,0.722527526562,0.968285346513
0.69696969697,1.56245321221,1.94386685304,3.43546021773,4.00531289475,3.91084830915,3.63493128886,0.577069288878,0.776661252315
0.707070707071,1.5256780932,1.98749241424,3.61890969447,4.46727971011,4.36032308921,3.91420780527,0.491946010337,0.646596921741
0.717171717172,1.53323595169,2.02139770782,3.73887754093,4.88669397009,4.77566498141,4.16499144744,0.434962458036,0.558729902719
0.727272727273,1.57878989464,2.02253289419,3.78718160063,5.22301270963,5.09449615402,4.34469665993,0.398832812716,0.500161666402
0.737373737374,1.63269163263,1.97882811952,3.75907825644,5.43217112315,5.278125224,4.41894896261,0.374035102811,0.454611300532
0.747474747475,1.64736107832,1.89512688494,3.63481224415,5.48493197619,5.31033238458,4.36443576564,0.352842235724,0.412196210282
0.757575757576,1.56253639864,1.77038227836,3.40576681138,5.37472143329,5.13841025469,4.15979150719,0.327472240606,0.364006544852
0.767676767677,1.33779953511,1.59745718485,3.07806637651,5.05894934562,4.73115825103,3.80315754347,0.289963062411,0.300680498155
0.777777777778,0.999481545037,1.37262480182,2.65340569038,4.5188128068,4.15874324547,3.30751786512,0.233397653965,0.22413582563
0.787878787879,0.635628067796,1.10114758317,2.13438541206,3.74066609145,3.43521025446,2.70048129528,0.16610420874,0.144837654723
0.79797979798,0.34088746368,0.804441103339,1.56731289614,2.81480685301,2.58365863211,2.03263103441,0.105440675772,0.0802054174199
0.808080808081,0.158671312179,0.525589747305,1.03005696576,1.89886859578,1.73059819351,1.36723460851,0.061072837115,0.0409925281784
0.818181818182,0.0669540410042,0.300529862853,0.590879064236,1.11151998496,1.00436511672,0.801804565702,0.0313856247921,0.0201844531659
0.828282828283,0.0256255258132,0.144809351256,0.283774863524,0.537390362456,0.496413095282,0.395073671538,0.0129774681985,0.00879751638005
0.838383838384,0.00853788873858,0.0547058060833,0.106445334075,0.198210304919,0.195723728428,0.151791991733,0.00385004982321,0.0030671027931
0.848484848485,0.0023909301221,0.01494337793,0.0291534889375,0.0537968250609,0.057660171749,0.041859371964,0.000748424774049,0.000827607009435
0.858585858586,0.00055798633371,0.00302636918378,0.00564788942866,0.0104717521526,0.0118056853314,0.00802537032042,6.5264317292e-05,0.000158235700398
0.868686868687,0.000112251655919,0.000526051961516,0.000798085053945,0.00158623895789,0.00167791621648,0.00117178059487,1.0068250733e-05,1.79363101628e-05
0.878787878788,2.05073506691e-05,7.77058576358e-05,8.89831743274e-05,0.000357079893711,0.000212655697167,0.000188355769072,2.17388274455e-06,9.92750053798e-07
0.888888888889,2.79704295052e-06,7.87306541987e-06,6.25103039267e-06,9.78135171443e-05,1.73111251039e-05,2.1886503311e-05,2.54588660905e-08,2.06300044034e-08
0.89898989899,2.01093089886e-07,4.16076036555e-07,1.84803822988e-07,1.12175502402e-05,4.65347806045e-07,5.90490668171e-07,1.03541293902e-11,1.3176115935e-10
0.909090909091,6.28704384618e-09,8.76616059201e-09,1.84398146706e-09,2.82312736304e-05,2.53882033611e-09,2.33248344399e-09,1.41854945071e-16,2.36201947082e-13
0.919191919192,7.98859154144e-11,6.34596406424e-11,5.69578197684e-12,7.27064999034e-06,2.26783675115e-12,1.16710153046e-12,6.53386577545e-23,1.14942790706e-16
0.929292929293,4.03587470389e-13,1.4930479014e-13,5.25489599012e-15,6.53500666705e-08,3.1224173508e-16,6.97172963245e-17,1.01166044259e-30,1.50044974401e-20
0.939393939394,8.04706994222e-16,1.12106900658e-16,1.42420380806e-18,7.44420538684e-12,6.53034223251e-21,4.83690673809e-22,5.2654381899e-40,5.23144143363e-25
0.949494949495,6.31587996971e-19,2.67064654829e-20,1.12441868193e-22,8.59060307955e-18,2.06748328742e-26,3.84528833399e-28,9.21232439661e-51,4.86375515263e-30
0.959595959596,1.94943310884e-22,2.01453590428e-24,2.57436497657e-27,9.63524223765e-26,9.90025662829e-33,3.47825416399e-35,5.41799829282e-63,1.2050259143e-35
0.969696969697,2.36539609975e-26,4.80855091262e-29,1.70485374679e-32,1.04159772259e-35,7.16902922116e-40,3.56555338273e-43,1.07113310496e-76,7.95399706227e-42
0.979797979798,1.12813285057e-30,3.63102140088e-34,3.26073209241e-38,1.08338499242e-47,7.84985400214e-48,4.13188983867e-52,7.11840931961e-92,1.39860217983e-48
0.989898989899,2.11472608796e-35,8.67321110285e-40,1.79942230198e-44,1.08381259885e-61,1.29970433822e-56,5.40389167687e-62,1.59022072318e-108,6.55095113861e-56
1.0,1.55803212114e-40,6.55319082912e-46,2.86322936322e-51,1.04275302888e-77,3.25392771686e-66,7.96695711607e-73,1.1941717615e-126,8.17350403231e-64
